#################################### 
# Matrix Size= (20,20,30)
# Resol      = (2,2,3)
# VoxelSize  = (10,10,10)
# nbVal      = 12
#################################### 
0 0 
0 0 

0 0 
0 0 

0 0 
0 0 

